^E:\SCHOOL\CS250\PROJECTS\CODYMORSE-PROJECT04-SORTING-ALGORITHMS\SORTING-DISEASE\DATAENTRY.CPP
/c /ZI /JMC /nologo /W3 /WX- /diagnostics:classic /sdl /Od /D _MBCS /Gm- /EHsc /RTC1 /MDd /GS /fp:precise /permissive- /Zc:wchar_t /Zc:forScope /Zc:inline /Fo"X64\DEBUG\\" /Fd"X64\DEBUG\VC141.PDB" /Gd /TP /FC E:\SCHOOL\CS250\PROJECTS\CODYMORSE-PROJECT04-SORTING-ALGORITHMS\SORTING-DISEASE\DATAENTRY.CPP
^E:\SCHOOL\CS250\PROJECTS\CODYMORSE-PROJECT04-SORTING-ALGORITHMS\SORTING-DISEASE\MAIN.CPP
/c /ZI /JMC /nologo /W3 /WX- /diagnostics:classic /sdl /Od /D _MBCS /Gm- /EHsc /RTC1 /MDd /GS /fp:precise /permissive- /Zc:wchar_t /Zc:forScope /Zc:inline /Fo"X64\DEBUG\\" /Fd"X64\DEBUG\VC141.PDB" /Gd /TP /FC E:\SCHOOL\CS250\PROJECTS\CODYMORSE-PROJECT04-SORTING-ALGORITHMS\SORTING-DISEASE\MAIN.CPP
