digraph "DATASTRUCTURES" {
  compound=true
  node [ fontsize="10", fontname="Helvetica"];
  edge [ labelfontsize="10", labelfontname="Helvetica"];
  dir_ef177d4437b866b5585709143b82e9b8 [shape=box, label="DATASTRUCTURES", style="filled", fillcolor="#eeeeff", pencolor="black", URL="dir_ef177d4437b866b5585709143b82e9b8.html"];
  dir_3efb633ccfa0a4fcc5ad369d07b74988 [shape=box label="UTILITIES" URL="dir_3efb633ccfa0a4fcc5ad369d07b74988.html"];
  dir_324682293aef097c5e3d46232678b3bf [shape=box label="EXCEPTIONS" URL="dir_324682293aef097c5e3d46232678b3bf.html"];
  dir_ef177d4437b866b5585709143b82e9b8->dir_3efb633ccfa0a4fcc5ad369d07b74988 [headlabel="1", labeldistance=1.5 headhref="dir_000003_000005.html"];
  dir_ef177d4437b866b5585709143b82e9b8->dir_324682293aef097c5e3d46232678b3bf [headlabel="1", labeldistance=1.5 headhref="dir_000003_000004.html"];
  dir_324682293aef097c5e3d46232678b3bf->dir_3efb633ccfa0a4fcc5ad369d07b74988 [headlabel="1", labeldistance=1.5 headhref="dir_000004_000005.html"];
}
