digraph "EXCEPTIONS" {
  compound=true
  node [ fontsize="10", fontname="Helvetica"];
  edge [ labelfontsize="10", labelfontname="Helvetica"];
  dir_324682293aef097c5e3d46232678b3bf [shape=box, label="EXCEPTIONS", style="filled", fillcolor="#eeeeff", pencolor="black", URL="dir_324682293aef097c5e3d46232678b3bf.html"];
  dir_3efb633ccfa0a4fcc5ad369d07b74988 [shape=box label="UTILITIES" URL="dir_3efb633ccfa0a4fcc5ad369d07b74988.html"];
  dir_324682293aef097c5e3d46232678b3bf->dir_3efb633ccfa0a4fcc5ad369d07b74988 [headlabel="1", labeldistance=1.5 headhref="dir_000004_000005.html"];
}
