^E:\SCHOOL\CS250\PROJECTS\CODYMORSE-PROJECT06-DICTIONARIES\VISUALSTUDIO PROJECT\CS250-DICTIONARIES\X64\DEBUG\MAIN.OBJ|E:\SCHOOL\CS250\PROJECTS\CODYMORSE-PROJECT06-DICTIONARIES\VISUALSTUDIO PROJECT\CS250-DICTIONARIES\X64\DEBUG\TESTERBASE.OBJ
/OUT:"E:\SCHOOL\CS250\PROJECTS\CODYMORSE-PROJECT06-DICTIONARIES\VISUALSTUDIO PROJECT\X64\DEBUG\CS250-DICTIONARIES.EXE" /INCREMENTAL /NOLOGO KERNEL32.LIB USER32.LIB GDI32.LIB WINSPOOL.LIB COMDLG32.LIB ADVAPI32.LIB SHELL32.LIB OLE32.LIB OLEAUT32.LIB UUID.LIB ODBC32.LIB ODBCCP32.LIB /MANIFEST /MANIFESTUAC:"level='asInvoker' uiAccess='false'" /manifest:embed /DEBUG:FASTLINK /PDB:"E:\SCHOOL\CS250\PROJECTS\CODYMORSE-PROJECT06-DICTIONARIES\VISUALSTUDIO PROJECT\X64\DEBUG\CS250-DICTIONARIES.PDB" /TLBID:1 /DYNAMICBASE /NXCOMPAT /IMPLIB:"E:\SCHOOL\CS250\PROJECTS\CODYMORSE-PROJECT06-DICTIONARIES\VISUALSTUDIO PROJECT\X64\DEBUG\CS250-DICTIONARIES.LIB" /MACHINE:X64 X64\DEBUG\TESTERBASE.OBJX64\DEBUG\MAIN.OBJ
^C:\USERS\SVC-STUDENT\DESKTOP\CS250\PROJECTS\CODYMORSE-PROJECT06-DICTIONARIES\VISUALSTUDIO PROJECT\CS250-DICTIONARIES\X64\DEBUG\MAIN.OBJ|C:\USERS\SVC-STUDENT\DESKTOP\CS250\PROJECTS\CODYMORSE-PROJECT06-DICTIONARIES\VISUALSTUDIO PROJECT\CS250-DICTIONARIES\X64\DEBUG\TESTERBASE.OBJ
/OUT:"C:\USERS\SVC-STUDENT\DESKTOP\CS250\PROJECTS\CODYMORSE-PROJECT06-DICTIONARIES\VISUALSTUDIO PROJECT\X64\DEBUG\CS250-DICTIONARIES.EXE" /INCREMENTAL /NOLOGO KERNEL32.LIB USER32.LIB GDI32.LIB WINSPOOL.LIB COMDLG32.LIB ADVAPI32.LIB SHELL32.LIB OLE32.LIB OLEAUT32.LIB UUID.LIB ODBC32.LIB ODBCCP32.LIB /MANIFEST /MANIFESTUAC:"level='asInvoker' uiAccess='false'" /manifest:embed /DEBUG:FASTLINK /PDB:"C:\USERS\SVC-STUDENT\DESKTOP\CS250\PROJECTS\CODYMORSE-PROJECT06-DICTIONARIES\VISUALSTUDIO PROJECT\X64\DEBUG\CS250-DICTIONARIES.PDB" /TLBID:1 /DYNAMICBASE /NXCOMPAT /IMPLIB:"C:\USERS\SVC-STUDENT\DESKTOP\CS250\PROJECTS\CODYMORSE-PROJECT06-DICTIONARIES\VISUALSTUDIO PROJECT\X64\DEBUG\CS250-DICTIONARIES.LIB" /MACHINE:X64 X64\DEBUG\TESTERBASE.OBJX64\DEBUG\MAIN.OBJ
