^C:\USERS\SVC-STUDENT\DESKTOP\CS250\PROJECTS\CODYMORSE-PROJECT06-DICTIONARIES\VISUALSTUDIO PROJECT\CS250-DICTIONARIES\X64\DEBUG\MAIN.OBJ|C:\USERS\SVC-STUDENT\DESKTOP\CS250\PROJECTS\CODYMORSE-PROJECT06-DICTIONARIES\VISUALSTUDIO PROJECT\CS250-DICTIONARIES\X64\DEBUG\TESTERBASE.OBJ
C:\USERS\SVC-STUDENT\DESKTOP\CS250\PROJECTS\CODYMORSE-PROJECT06-DICTIONARIES\VISUALSTUDIO PROJECT\X64\DEBUG\CS250-DICTIONARIES.EXE
C:\USERS\SVC-STUDENT\DESKTOP\CS250\PROJECTS\CODYMORSE-PROJECT06-DICTIONARIES\VISUALSTUDIO PROJECT\X64\DEBUG\CS250-DICTIONARIES.ILK
C:\USERS\SVC-STUDENT\DESKTOP\CS250\PROJECTS\CODYMORSE-PROJECT06-DICTIONARIES\VISUALSTUDIO PROJECT\X64\DEBUG\CS250-DICTIONARIES.PDB
